%YAML 1.1
%TAG !u! tag:unity3d.com,2011:
--- !u!21 &2100000
Material:
  serializedVersion: 3
  m_ObjectHideFlags: 0
  m_PrefabParentObject: {fileID: 0}
  m_PrefabInternal: {fileID: 0}
  m_Name: 05 - Default
  m_Shader: {fileID: 4800000, guid: 19eb7692781a11144aad70aa81e68fc1, type: 1}
  m_SavedProperties:
    serializedVersion: 2
    m_TexEnvs:
      data:
        first:
          name: _MainTex
        second:
          m_Texture: {fileID: 2800000, guid: 0ccd72e319385dd43b52fa42b842b957, type: 1}
          m_Scale: {x: 1, y: 1}
          m_Offset: {x: 0, y: 0}
      data:
        first:
          name: _Reflection
        second:
          m_Texture: {fileID: 0}
          m_Scale: {x: 1, y: 1}
          m_Offset: {x: 0, y: 0}
      data:
        first:
          name: _BumpMap
        second:
          m_Texture: {fileID: 2800000, guid: f5ed575eb80346e44935e7cab31e51a6, type: 1}
          m_Scale: {x: 2, y: 2}
          m_Offset: {x: 0, y: 0}
      data:
        first:
          name: _Emit
        second:
          m_Texture: {fileID: 0}
          m_Scale: {x: 1, y: 1}
          m_Offset: {x: 0, y: 0}
      data:
        first:
          name: _Spec
        second:
          m_Texture: {fileID: 2800000, guid: 7892119c8bd2a1a43adb4d85b5b47ffd, type: 1}
          m_Scale: {x: 1, y: 1}
          m_Offset: {x: 0, y: 0}
    m_Floats:
      data:
        first:
          name: _Shininess
        second: .502453923
      data:
        first:
          name: _FaloffGloss
        second: 1
      data:
        first:
          name: _Diffuse
        second: .167478278
      data:
        first:
          name: _SpecFaloff
        second: 0
      data:
        first:
          name: _Glossiness
        second: .246376798
      data:
        first:
          name: _RimFaloff
        second: 3
      data:
        first:
          name: _RimNormal
        second: .485927522
      data:
        first:
          name: _RimVertex
        second: .192072481
      data:
        first:
          name: _Emission
        second: .5
      data:
        first:
          name: _RimPower
        second: 1.75
      data:
        first:
          name: _Spec_Faloff
        second: .5
    m_Colors:
      data:
        first:
          name: _Color
        second: {r: .25373137, g: .25373137, b: .25373137, a: 1}
      data:
        first:
          name: _SpecColor
        second: {r: .216417909, g: .131666854, b: 0, a: 1}
      data:
        first:
          name: _Diffuse
        second: {r: .440298498, g: .440298498, b: .440298498, a: 1}
      data:
        first:
          name: _SpecularColor
        second: {r: 0, g: .0909612626, b: .156716406, a: 1}
      data:
        first:
          name: _RimColor
        second: {r: 1, g: 1, b: 1, a: 1}
