%YAML 1.1
%TAG !u! tag:unity3d.com,2011:
--- !u!21 &2100000
Material:
  serializedVersion: 3
  m_ObjectHideFlags: 0
  m_PrefabParentObject: {fileID: 0}
  m_PrefabInternal: {fileID: 0}
  m_Name: blinn1
  m_Shader: {fileID: 4800000, guid: 963484209d11fd7f110076aa44295342, type: 1}
  m_SavedProperties:
    serializedVersion: 2
    m_TexEnvs:
      data:
        first:
          name: _MainTex
        second:
          m_Texture: {fileID: 2800000, guid: 0ccd72e319385dd43b52fa42b842b957, type: 1}
          m_Scale: {x: 5, y: 5}
          m_Offset: {x: 0, y: 0}
      data:
        first:
          name: _BumpMap
        second:
          m_Texture: {fileID: 2800000, guid: 62a81955fa0809a4e8e224801926a694, type: 1}
          m_Scale: {x: 5, y: 5}
          m_Offset: {x: 0, y: 0}
    m_Floats:
      data:
        first:
          name: _BumpAmt
        second: 116.666664
    m_Colors:
      data:
        first:
          name: _Color
        second: {r: .5, g: .5, b: .5, a: 1}
