%YAML 1.1
%TAG !u! tag:unity3d.com,2011:
--- !u!21 &2100000
Material:
  serializedVersion: 3
  m_ObjectHideFlags: 0
  m_PrefabParentObject: {fileID: 0}
  m_PrefabInternal: {fileID: 0}
  m_Name: Rings
  m_Shader: {fileID: 4800000, guid: c10519716d6c5f44481a2c3029d98d7e, type: 1}
  m_SavedProperties:
    serializedVersion: 2
    m_TexEnvs:
      data:
        first:
          name: _MainTex
        second:
          m_Texture: {fileID: 2800000, guid: 377d19342281e4b4ebe4e5b8044e5f66, type: 1}
          m_Scale: {x: 1, y: 1}
          m_Offset: {x: 0, y: 0}
      data:
        first:
          name: _Reflection
        second:
          m_Texture: {fileID: 8900000, guid: 9a37a554aa80f2749a8b10e260e82bba, type: 2}
          m_Scale: {x: 1, y: 1}
          m_Offset: {x: 0, y: 0}
      data:
        first:
          name: _BumpMap
        second:
          m_Texture: {fileID: 2800000, guid: 9e3ed6f937cbb1e429ad7c6ae8b93cf9, type: 1}
          m_Scale: {x: 1, y: 1}
          m_Offset: {x: 0, y: 0}
      data:
        first:
          name: _Spec
        second:
          m_Texture: {fileID: 0}
          m_Scale: {x: 1, y: 1}
          m_Offset: {x: 0, y: 0}
    m_Floats:
      data:
        first:
          name: _FaloffGloss
        second: 1
      data:
        first:
          name: _Diffuse
        second: .405999988
      data:
        first:
          name: _SpecFaloff
        second: 1
      data:
        first:
          name: _Glossiness
        second: 1
      data:
        first:
          name: _RimFaloff
        second: 3
      data:
        first:
          name: _RimNormal
        second: .391304344
      data:
        first:
          name: _RimVertex
        second: .471328378
      data:
        first:
          name: _RimPower
        second: 3
    m_Colors:
      data:
        first:
          name: _Color
        second: {r: .5, g: .5, b: .5, a: 1}
      data:
        first:
          name: _Diffuse
        second: {r: .188906193, g: .192744642, b: .23880595, a: 1}
      data:
        first:
          name: _SpecularColor
        second: {r: .597014904, g: .966183126, b: 1, a: 1}
      data:
        first:
          name: _RimColor
        second: {r: .242258847, g: .410179704, b: .649253726, a: 1}
