%YAML 1.1
%TAG !u! tag:unity3d.com,2011:
--- !u!21 &2100000
Material:
  serializedVersion: 3
  m_ObjectHideFlags: 0
  m_PrefabParentObject: {fileID: 0}
  m_PrefabInternal: {fileID: 0}
  m_Name: ScreenFX
  m_Shader: {fileID: 4800000, guid: cda0c93daa22f7f4e9d1226f763f5085, type: 1}
  m_SavedProperties:
    serializedVersion: 2
    m_TexEnvs:
      data:
        first:
          name: _MainTex
        second:
          m_Texture: {fileID: 0}
          m_Scale: {x: 1, y: 1}
          m_Offset: {x: 0, y: 0}
      data:
        first:
          name: _Sampler
        second:
          m_Texture: {fileID: 2800000, guid: 872158c3ad7eaf64eb12e83bf8d42586, type: 1}
          m_Scale: {x: 1, y: 1}
          m_Offset: {x: 0, y: 0}
    m_Floats:
      data:
        first:
          name: _Diffuse
        second: 1
      data:
        first:
          name: _Speed
        second: 250
    m_Colors:
      data:
        first:
          name: _Color
        second: {r: .5, g: .5, b: .5, a: 1}
