%YAML 1.1
%TAG !u! tag:unity3d.com,2011:
--- !u!21 &2100000
Material:
  serializedVersion: 3
  m_ObjectHideFlags: 0
  m_PrefabParentObject: {fileID: 0}
  m_PrefabInternal: {fileID: 0}
  m_Name: segSevenAsteroidDiff
  m_Shader: {fileID: 4800000, guid: c10519716d6c5f44481a2c3029d98d7e, type: 1}
  m_SavedProperties:
    serializedVersion: 2
    m_TexEnvs:
      data:
        first:
          name: _MainTex
        second:
          m_Texture: {fileID: 2800000, guid: 94646915032e0ad449484e2993028e68, type: 1}
          m_Scale: {x: 1, y: 1}
          m_Offset: {x: 0, y: 0}
      data:
        first:
          name: _BumpMap
        second:
          m_Texture: {fileID: 2800000, guid: 84f55d2dfe44ca143836b669fb7470ec, type: 1}
          m_Scale: {x: 1, y: 1}
          m_Offset: {x: 0, y: 0}
      data:
        first:
          name: _Illum
        second:
          m_Texture: {fileID: 2800000, guid: 94646915032e0ad449484e2993028e68, type: 1}
          m_Scale: {x: 1, y: 1}
          m_Offset: {x: 0, y: 0}
    m_Floats:
      data:
        first:
          name: _FaloffGloss
        second: 1
      data:
        first:
          name: _Diffuse
        second: 1
      data:
        first:
          name: _SpecFaloff
        second: 1
      data:
        first:
          name: _Glossiness
        second: 1
      data:
        first:
          name: _RimFaloff
        second: .982608676
      data:
        first:
          name: _RimNormal
        second: .478260845
      data:
        first:
          name: _RimVertex
        second: 0
      data:
        first:
          name: _EmissionLM
        second: 0
    m_Colors:
      data:
        first:
          name: _Color
        second: {r: .380596995, g: .380596995, b: .380596995, a: 1}
      data:
        first:
          name: _SpecularColor
        second: {r: 0, g: 0, b: 0, a: 1}
      data:
        first:
          name: _RimColor
        second: {r: .395522416, g: .124465108, b: 0, a: 1}
