%YAML 1.1
%TAG !u! tag:unity3d.com,2011:
--- !u!74 &7400000
AnimationClip:
  m_ObjectHideFlags: 0
  m_PrefabParentObject: {fileID: 0}
  m_PrefabInternal: {fileID: 0}
  m_Name: start
  serializedVersion: 3
  m_Compressed: 0
  m_RotationCurves:
  - curve:
      serializedVersion: 2
      m_Curve:
      - time: 0
        value: {x: .001640692, y: -.266739756, z: -.00223304145, w: .963764608}
        inSlope: {x: -.00128785986, y: .00294971466, z: .00316185504, w: .000825405121}
        outSlope: {x: -.00128785986, y: .00294971466, z: .00316185504, w: .000825405121}
        tangentMode: -559038737
      - time: 1.58333337
        value: {x: -.0257891305, y: -.162017241, z: .109236501, w: .980383992}
        inSlope: {x: -.00807715673, y: .0825209841, z: .0881669372, w: .0036084638}
        outSlope: {x: -.00807715673, y: .0825209841, z: .0881669372, w: .0036084638}
        tangentMode: -559038737
      - time: 2.66666675
        value: {x: -.0277805496, y: -.12295372, z: .154555947, w: .979909718}
        inSlope: {x: -.00277517317, y: -.0115296692, z: .00355786434, w: -.00208640331}
        outSlope: {x: -.00277517317, y: -.0115296692, z: .00355786434, w: -.00208640331}
        tangentMode: -559038737
      - time: 4.41666698
        value: {x: -.0559892915, y: -.256735176, z: .160407245, w: .951431453}
        inSlope: {x: -.0325182006, y: -.159691453, z: .00078052585, w: -.0451564118}
        outSlope: {x: -.0325182006, y: -.159691453, z: .00078052585, w: -.0451564118}
        tangentMode: -559038737
      - time: 5.25000048
        value: {x: -.0980207548, y: -.499527246, z: .146530032, w: .848170638}
        inSlope: {x: -.048974894, y: -.342013538, z: -.0334638953, w: -.201293334}
        outSlope: {x: -.048974894, y: -.342013538, z: -.0334638953, w: -.201293334}
        tangentMode: -559038737
      - time: 6.20833349
        value: {x: -.120435566, y: -.6967749, z: .120435566, w: .6967749}
        inSlope: {x: -.000924113963, y: -.0117073506, z: -.00202632719, w: -.0115099391}
        outSlope: {x: -.000924113963, y: -.0117073506, z: -.00202632719, w: -.0115099391}
        tangentMode: -559038737
      m_PreInfinity: 2
      m_PostInfinity: 2
    path: 
  m_CompressedRotationCurves: []
  m_PositionCurves:
  - curve:
      serializedVersion: 2
      m_Curve:
      - time: 0
        value: {x: 16.2428665, y: 9.03829861, z: 15.5273972}
        inSlope: {x: -2.1807251e-05, y: -.00013296587, z: 9.48493689e-05}
        outSlope: {x: -2.1807251e-05, y: -.00013296587, z: 9.48493689e-05}
        tangentMode: -559038737
      - time: 2.08333325
        value: {x: 19.6084347, y: 7.12728596, z: 5.4468565}
        inSlope: {x: 1.04786408, y: -1.24442208, z: -3.13869643}
        outSlope: {x: 1.04804778, y: -1.24440396, z: -3.1386497}
        tangentMode: -559038737
      - time: 2.45833325
        value: {x: 19.7852764, y: 6.6844883, z: 4.89617538}
        inSlope: {x: -.340372771, y: -1.14555454, z: .0151759256}
        outSlope: {x: -.340409786, y: -1.14566565, z: .0150560336}
        tangentMode: -559038737
      - time: 4.50000048
        value: {x: 8.43286419, y: 3.61186695, z: 5.4001379}
        inSlope: {x: -7.75381422, y: -1.48194742, z: .34422034}
        outSlope: {x: -7.75283289, y: -1.48184311, z: .344119102}
        tangentMode: -559038737
      - time: 6.20833349
        value: {x: -0, y: 2.11734796, z: 5.77449417}
        inSlope: {x: 5.88622652e-06, y: 3.215588e-05, z: 2.61571204e-05}
        outSlope: {x: 5.88622652e-06, y: 3.215588e-05, z: 2.61571204e-05}
        tangentMode: -559038737
      m_PreInfinity: 2
      m_PostInfinity: 2
    path: 
  m_ScaleCurves:
  - curve:
      serializedVersion: 2
      m_Curve:
      - time: 0
        value: {x: 1, y: 1, z: 1}
        inSlope: {x: 0, y: 0, z: 0}
        outSlope: {x: 0, y: 0, z: 0}
        tangentMode: -559038737
      - time: 6.20833349
        value: {x: 1, y: 1, z: 1}
        inSlope: {x: 0, y: 0, z: 0}
        outSlope: {x: 0, y: 0, z: 0}
        tangentMode: -559038737
      m_PreInfinity: 2
      m_PostInfinity: 2
    path: 
  m_FloatCurves: []
  m_SampleRate: 24
  m_WrapMode: 0
  m_Bounds:
    m_Center: {x: 0, y: 0, z: 0}
    m_Extent: {x: 0, y: 0, z: 0}
  m_EditorCurves: []
  m_EulerEditorCurves: []
  m_Events: []
